…
``` r
bq_df
#> # A tibble: 292 × 3
#>    publication_year publisher                      n
#>               <int> <chr>                      <int>
#>  1             2025 Wiley                      13741
#>  2             2025 Elsevier                   11194
#>  3             2025 Springer Nature             7930
#>  4             2025 Taylor & Francis            6035
#>  5             2025 Sage                        3194
#>  6             2025 Oxford University Press     2700
#>  7             2025 American Chemical Society   1202
#>  8             2025 Royal Society of Chemistry   697
#>  9             2025 American Physical Society    581
#> 10             2025 Cambridge University Press   548
#> # ℹ 282 more rows
```
…
``` r
bq_oa_df
#> # A tibble: 1,243 × 4
#>    publication_year publisher        oa_status     n
#>               <int> <chr>            <chr>     <int>
#>  1             2025 Wiley            hybrid     7761
#>  2             2025 Elsevier         hybrid     5417
#>  3             2025 Springer Nature  hybrid     4682
#>  4             2025 Elsevier         closed     4491
#>  5             2025 Taylor & Francis hybrid     3597
#>  6             2025 Wiley            closed     3326
#>  7             2025 Sage             closed     2495
#>  8             2025 Wiley            gold       2188
#>  9             2025 Taylor & Francis closed     2110
#> 10             2025 Springer Nature  gold       1562
#> # ℹ 1,233 more rows
```
…
